/Users/olejacobmellgren/Documents/Egne prosjekter/template/projectName/ui/src/main/java/projectName/ui/DummyController.java
/Users/olejacobmellgren/Documents/Egne prosjekter/template/projectName/ui/src/main/java/projectName/ui/ProjectApp.java
/Users/olejacobmellgren/Documents/Egne prosjekter/template/projectName/ui/src/main/java/module-info.java
